RaceNumber,Name,EventID
1,Joe,1
2,Mary,2
3,Ben,3
1,Joe,4
4,Evan,5
5,Frank,6
6,Victor,7
6,Victor,8
7,Gary,9
8,Ella,10
9,Jacob,11
5,Frank,12
10,Sarah,13
11,Caraway,14
12,Josh,2
7,Gary,3
8,Ella,8
9,Jacob,12
